%YAML 1.1
%TAG !u! tag:unity3d.com,2011:
--- !u!114 &11400000
MonoBehaviour:
  m_ObjectHideFlags: 0
  m_CorrespondingSourceObject: {fileID: 0}
  m_PrefabInstance: {fileID: 0}
  m_PrefabAsset: {fileID: 0}
  m_GameObject: {fileID: 0}
  m_Enabled: 1
  m_EditorHideFlags: 0
  m_Script: {fileID: 11500000, guid: 20b3998368ad5464c87333a3c72d3993, type: 3}
  m_Name: Villager
  m_EditorClassIdentifier: 
  roleName: Villager
  description: The basic role, you don't have a specific power. Your goal is to get
    rid of all werewolves without getting killed.
  isDead: 0
  isAwake: 0
  isProtected: 0
  nbVoteOnRole: 0
